{
  "project_info": {
    "project_number": "1062613711692",
    "firebase_url": "https://meta-economica.firebaseio.com",
    "project_id": "meta-economica",
    "storage_bucket": "meta-economica.appspot.com"
  },
  "client": [
    {
      "client_info": {
        "mobilesdk_app_id": "1:1062613711692:android:805e693f7c91249920ede9",
        "android_client_info": {
          "package_name": "com.fidjis.meta_economica"
        }
      },
      "oauth_client": [
        {
          "client_id": "1062613711692-ira4do2j4hk23sh2ov187hacg0nv7e8t.apps.googleusercontent.com",
          "client_type": 1,
          "android_info": {
            "package_name": "com.fidjis.meta_economica",
            "certificate_hash": "f3702932d4849e81b1e7d562f78866cfc3777b91"
          }
        },
        {
          "client_id": "1062613711692-udidgdtki36pfi0m2ncdauk4vg9lmfaj.apps.googleusercontent.com",
          "client_type": 3
        }
      ],
      "api_key": [
        {
          "current_key": "AIzaSyDIl-zjm4IT2y5Lzu7MopxIeo6FIZu8M5I"
        }
      ],
      "services": {
        "appinvite_service": {
          "other_platform_oauth_client": [
            {
              "client_id": "1062613711692-udidgdtki36pfi0m2ncdauk4vg9lmfaj.apps.googleusercontent.com",
              "client_type": 3
            }
          ]
        }
      }
    },
    {
      "client_info": {
        "mobilesdk_app_id": "1:1062613711692:android:60a5633f215b0de820ede9",
        "android_client_info": {
          "package_name": "com.fidjis.minha_meta_economica.minha_meta_economica"
        }
      },
      "oauth_client": [
        {
          "client_id": "1062613711692-udidgdtki36pfi0m2ncdauk4vg9lmfaj.apps.googleusercontent.com",
          "client_type": 3
        }
      ],
      "api_key": [
        {
          "current_key": "AIzaSyDIl-zjm4IT2y5Lzu7MopxIeo6FIZu8M5I"
        }
      ],
      "services": {
        "appinvite_service": {
          "other_platform_oauth_client": [
            {
              "client_id": "1062613711692-udidgdtki36pfi0m2ncdauk4vg9lmfaj.apps.googleusercontent.com",
              "client_type": 3
            }
          ]
        }
      }
    }
  ],
  "configuration_version": "1"
}